[
  {
    "latitude": 54.693570210498706,
    "longitude": 25.264441033281628
  },
  {
    "latitude": 54.69349580176276,
    "longitude": 25.265063305773083
  },
  {
    "latitude": 54.69318576389433,
    "longitude": 25.266543885149304
  },
  {
    "latitude": 54.69299974003623,
    "longitude": 25.26759531108314
  },
  {
    "latitude": 54.69337178689964,
    "longitude": 25.26817466823036
  },
  {
    "latitude": 54.69380583726231,
    "longitude": 25.268818398393933
  },
  {
    "latitude": 54.69366942193435,
    "longitude": 25.26935484019691
  },
  {
    "latitude": 54.693148559190945,
    "longitude": 25.270234604753796
  },
  {
    "latitude": 54.69271450179747,
    "longitude": 25.270942707933727
  },
  {
    "latitude": 54.69221518996968,
    "longitude": 25.271692503861004
  },
  {
    "latitude": 54.692475628167536,
    "longitude": 25.272464980057293
  },
  {
    "latitude": 54.69298409792688,
    "longitude": 25.273194540909344
  },
  {
    "latitude": 54.694148996645815,
    "longitude": 25.274835328558538
  },
  {
    "latitude": 54.69478145637072,
    "longitude": 25.276115203723407
  },
  {
    "latitude": 54.69525269446252,
    "longitude": 25.275621677264667
  },
  {
    "latitude": 54.69589753771927,
    "longitude": 25.275857711657977
  },
  {
    "latitude": 54.69622028615376,
    "longitude": 25.27679443359375
  },
  {
    "latitude": 54.695420728859716,
    "longitude": 25.278174262487937
  },
  {
    "latitude": 54.69501149778747,
    "longitude": 25.279547553503562
  },
  {
    "latitude": 54.694701471500025,
    "longitude": 25.282714708947992
  },
  {
    "latitude": 54.69437731437591,
    "longitude": 25.286275071837053
  },
  {
    "latitude": 54.695112285727134,
    "longitude": 25.291895503196884
  }
]
